012021033102BPAC11      010BTGP BANCO  UNT     N2   R$  000000000974000000000097410000000009500000000000963300000000097050000000009700000000000970519777000000000004035100000000038873536100000000000000009999123100000010000000000000BRBPACUNT006108
012021041402BRML3       010BR MALLS PARON      NM   R$  000000000098600000000009990000000000964000000000097300000000009710000000000971000000000097220327000000000015553200000000015147603100000000000000009999123100000010000000000000BRBRMLACNOR9115
012021041678BRMLD960    070BRML        ON      NM000R$  000000000001800000000000300000000000017000000000002100000000000190000000000020000000000004400028000000000000038600000000000000830100000000000096002021041900000010000000000000BRBRMLACNOR9115
012021071402BRML3       010BR MALLS PARON      NM   R$  000000000098600000000009990000000000964000000000097300000000009710000000000971000000000097220327000000000015553200000000015147603100000000000000009999123100000010000000000000BRBRMLACNOR9115
012021071678BRMLD960    070BRML        ON      NM000R$  000000000001800000000000300000000000017000000000002100000000000190000000000020000000000004400028000000000000038600000000000000830100000000000096002021041900000010000000000000BRBRMLACNOR9115
012021062975IBOVS130    080IBOVE  FM   IBO       000R$  000000037550000000004197000000000349200000000037381400000003492000000000000000000000000000000007000000000000000175000000000065417500000001300000002021071400000010130000000000BRIBOVINDM18008

